# compile verilog/system verilog design source files
verilog xil_defaultlib  \
"../../../../Multiplier.srcs/sources_1/new/multiplier.v" \
"../../../../Multiplier.srcs/sim_1/new/multiplier_tb.v" \

# compile glbl module
verilog xil_defaultlib "glbl.v"

# Do not sort compile order
nosort
